…
```r
gapwide %>%
  pivot_longer(cols = c(-year),
               names_to = "Country",
               values_to="Life Expectancy")
```

```
## # A tibble: 36 x 3
##     year Country `Life Expectancy`
##    <int> <chr>               <dbl>
##  1  1952 Algeria              43.1
##  2  1952 Bahrain              50.9
##  3  1952 Canada               68.8
##  4  1957 Algeria              45.7
##  5  1957 Bahrain              53.8
##  6  1957 Canada               70.0
##  7  1962 Algeria              48.3
##  8  1962 Bahrain              56.9
##  9  1962 Canada               71.3
## 10  1967 Algeria              51.4
## # … with 26 more rows
```
…
### 2.2 Relengthen Data:

```r
gap_mulit_wide %>%
  pivot_longer(cols=c(-year),
               names_to = c(".value", "country"),
               names_sep = "_")
```

```
## # A tibble: 24 x 4
##     year country   lifeExp gdpPercap
##    <int> <chr>       <dbl>     <dbl>
##  1  1952 Australia    69.1    10040.
##  2  1952 Bahrain      50.9     9867.
##  3  1957 Australia    70.3    10950.
##  4  1957 Bahrain      53.8    11636.
##  5  1962 Australia    70.9    12217.
##  6  1962 Bahrain      56.9    12753.
##  7  1967 Australia    71.1    14526.
##  8  1967 Bahrain      59.9    14805.
##  9  1972 Australia    71.9    16789.
## 10  1972 Bahrain      63.3    18269.
## # … with 14 more rows
```
…
## There is a white space in Email dataset 
```

## 3.1 Add Emails for Each Guest on List:

Including emails only for those on the guest dataset (no additonal emails):

```r
guest_emails <- Email %>%
  inner_join(guest,Email, by="name") %>%
print(guest_emails)
```

```
## # A tibble: 25 x 8
##    name  email party meal_wedding meal_brunch attendance_wedd…
##    <chr> <chr> <dbl> <chr>        <chr>       <chr>           
##  1 Somm… somm…     1 PENDING      PENDING     PENDING         
##  2 Phil… somm…     1 vegetarian   Menu C      CONFIRMED       
##  3 Blan… somm…     1 chicken      Menu A      CONFIRMED       
##  4 Emaa… somm…     1 PENDING      PENDING     PENDING         
##  5 Blai… bpar…     2 chicken      Menu C      CONFIRMED       
##  6 Nige… bpar…     2 <NA>         <NA>        CANCELLED       
##  7 Sine… sing…     3 PENDING      PENDING     PENDING         
##  8 Ayra… mark…     4 vegetarian   Menu B      PENDING         
##  9 Jole… jw19…     6 <NA>         <NA>        CANCELLED       
## 10 Hayl… jw19…     6 vegetarian   Menu C      CONFIRMED       
## # … with 15 more rows, and 2 more variables: attendance_brunch <chr>,
## #   attendance_golf <chr>
```
…
## 3.3 Guest List for all those that we have emails for:

A new guest list with names of people on the original guest list with emails and those not on the original guest list who also have emails 


```r
guest_all_emails <- Email %>%
  left_join(guest,Email, by="name") %>%
print(guest_emails)
```

```
## # A tibble: 28 x 8
##    name  email party meal_wedding meal_brunch attendance_wedd…
##    <chr> <chr> <dbl> <chr>        <chr>       <chr>           
##  1 Somm… somm…     1 PENDING      PENDING     PENDING         
##  2 Phil… somm…     1 vegetarian   Menu C      CONFIRMED       
##  3 Blan… somm…     1 chicken      Menu A      CONFIRMED       
##  4 Emaa… somm…     1 PENDING      PENDING     PENDING         
##  5 Blai… bpar…     2 chicken      Menu C      CONFIRMED       
##  6 Nige… bpar…     2 <NA>         <NA>        CANCELLED       
##  7 Sine… sing…     3 PENDING      PENDING     PENDING         
##  8 Ayra… mark…     4 vegetarian   Menu B      PENDING         
##  9 Jole… jw19…     6 <NA>         <NA>        CANCELLED       
## 10 Hayl… jw19…     6 vegetarian   Menu C      CONFIRMED       
## # … with 18 more rows, and 2 more variables: attendance_brunch <chr>,
## #   attendance_golf <chr>
```
…
